{
  "total": 10,
  "totalPages": 2,
  "currentPage": 1,
  "list": [
    {
      "id": 8,
      "title": "Cras condimentum interdum metus",
      "description": "Lorem ipsum dolor sit amet, consectetur adipiscing elit. Cras condimentum interdum metus",
      "content": "<p style=\"text-align: justify;\">Lorem ipsum dolor sit amet, consectetur adipiscing elit. Fusce sed erat vel erat iaculis pellentesque quis quis libero. Nullam id quam orci. Maecenas in lacinia magna. Phasellus ac enim auctor, aliquam ligula vel, aliquet risus. Duis ut finibus magna, sit amet tincidunt nunc. Integer aliquet tempus felis, nec tincidunt erat ultricies tempus. Duis sed nunc convallis, egestas sem ullamcorper, dapibus sem. Proin id varius ipsum. Sed semper lobortis auctor. Aenean eu ligula sit amet libero tempor vestibulum eu ac neque. Maecenas sollicitudin in eros vitae mattis. Vivamus bibendum congue velit, ut scelerisque lectus.</p> <p>Nam ultricies aliquet arcu, vel malesuada sapien mattis sed. Aliquam tempus turpis vitae luctus elementum. Aliquam at ipsum neque. Nulla nulla quam, ullamcorper eu hendrerit id, volutpat at dolor. Nunc pharetra leo et purus interdum venenatis non nec felis. Sed vulputate, est quis scelerisque rhoncus, urna felis ultrices nisi, vel imperdiet dolor nibh nec erat. Quisque in pretium orci. Aenean blandit pharetra elit, ac blandit sapien volutpat et.</p><p>Cras condimentum interdum metus, nec pellentesque metus tincidunt vel. Sed in libero nec lectus mattis iaculis. Aliquam diam lorem, fermentum vel accumsan at, suscipit id odio. Proin feugiat euismod dolor eu porttitor. Donec eget varius eros. Curabitur at orci id lacus molestie facilisis. Vivamus venenatis, turpis eget egestas accumsan, ligula tortor feugiat enim, eget auctor magna sem sed purus. Donec ac magna mauris. Quisque rhoncus ligula id scelerisque pellentesque. Ut tincidunt neque ac est pellentesque, a hendrerit odio ullamcorper. Etiam sagittis orci orci, vel interdum augue volutpat vel. Duis ante nisi, fringilla ut mauris sed, accumsan mattis arcu. Integer condimentum neque nec purus malesuada pellentesque. Proin maximus ante velit, sit amet facilisis nisi egestas sed. Duis sed lacus quis nunc rutrum placerat.</p><p>Vestibulum finibus pharetra interdum. Nulla massa neque, tincidunt vel mauris non, commodo fermentum nunc. In commodo varius interdum. Pellentesque habitant morbi tristique senectus et netus et malesuada fames ac turpis egestas. Donec lobortis, magna ut laoreet tempus, mi lorem fringilla turpis, ut egestas urna est non velit. Proin ornare mollis elit. Proin nec leo non libero porttitor mollis mollis quis neque. Donec vulputate felis quis mattis dignissim. Lorem ipsum dolor sit amet, consectetur adipiscing elit. Nullam lobortis purus in libero volutpat venenatis. Nunc fringilla tincidunt iaculis. Sed in mi velit. Ut tortor nibh, ornare eu velit luctus, pulvinar facilisis justo. Duis a gravida nisl, eget blandit sapien.</p><p>Vestibulum pellentesque sodales pulvinar. Integer tortor purus, auctor nec mi at, posuere aliquet odio. In dignissim nisl id consequat consectetur. Integer porta, lorem quis placerat ultrices, massa purus molestie ante, et elementum nisi nisi quis leo. Sed volutpat mattis orci a laoreet. Mauris vehicula gravida nulla sed dictum. Curabitur eget consectetur orci. Praesent a elit mauris. Donec mi velit, commodo sit amet eleifend in, consectetur id felis.</p>",
      "media": "https://picsum.photos/900/500",
      "status": 1,
      "createdDate": "2025-03-04T11:18:49+01:00",
      "updatedDate": "2025-03-04T11:18:49+01:00"
    },
    {
      "id": 7,
      "title": "Des droits de douane de 25 % seront imposés dès mardi, confirme Trump",
      "description": "Lorem ipsum dolor sit amet, consectetur adipiscing elit. Cras condimentum interdum metus",
      "content": "<p style=\"text-align: justify;\">Lorem ipsum dolor sit amet, consectetur adipiscing elit. Fusce sed erat vel erat iaculis pellentesque quis quis libero. Nullam id quam orci. Maecenas in lacinia magna. Phasellus ac enim auctor, aliquam ligula vel, aliquet risus. Duis ut finibus magna, sit amet tincidunt nunc. Integer aliquet tempus felis, nec tincidunt erat ultricies tempus. Duis sed nunc convallis, egestas sem ullamcorper, dapibus sem. Proin id varius ipsum. Sed semper lobortis auctor. Aenean eu ligula sit amet libero tempor vestibulum eu ac neque. Maecenas sollicitudin in eros vitae mattis. Vivamus bibendum congue velit, ut scelerisque lectus.</p> <p>Nam ultricies aliquet arcu, vel malesuada sapien mattis sed. Aliquam tempus turpis vitae luctus elementum. Aliquam at ipsum neque. Nulla nulla quam, ullamcorper eu hendrerit id, volutpat at dolor. Nunc pharetra leo et purus interdum venenatis non nec felis. Sed vulputate, est quis scelerisque rhoncus, urna felis ultrices nisi, vel imperdiet dolor nibh nec erat. Quisque in pretium orci. Aenean blandit pharetra elit, ac blandit sapien volutpat et.</p><p>Cras condimentum interdum metus, nec pellentesque metus tincidunt vel. Sed in libero nec lectus mattis iaculis. Aliquam diam lorem, fermentum vel accumsan at, suscipit id odio. Proin feugiat euismod dolor eu porttitor. Donec eget varius eros. Curabitur at orci id lacus molestie facilisis. Vivamus venenatis, turpis eget egestas accumsan, ligula tortor feugiat enim, eget auctor magna sem sed purus. Donec ac magna mauris. Quisque rhoncus ligula id scelerisque pellentesque. Ut tincidunt neque ac est pellentesque, a hendrerit odio ullamcorper. Etiam sagittis orci orci, vel interdum augue volutpat vel. Duis ante nisi, fringilla ut mauris sed, accumsan mattis arcu. Integer condimentum neque nec purus malesuada pellentesque. Proin maximus ante velit, sit amet facilisis nisi egestas sed. Duis sed lacus quis nunc rutrum placerat.</p><p>Vestibulum finibus pharetra interdum. Nulla massa neque, tincidunt vel mauris non, commodo fermentum nunc. In commodo varius interdum. Pellentesque habitant morbi tristique senectus et netus et malesuada fames ac turpis egestas. Donec lobortis, magna ut laoreet tempus, mi lorem fringilla turpis, ut egestas urna est non velit. Proin ornare mollis elit. Proin nec leo non libero porttitor mollis mollis quis neque. Donec vulputate felis quis mattis dignissim. Lorem ipsum dolor sit amet, consectetur adipiscing elit. Nullam lobortis purus in libero volutpat venenatis. Nunc fringilla tincidunt iaculis. Sed in mi velit. Ut tortor nibh, ornare eu velit luctus, pulvinar facilisis justo. Duis a gravida nisl, eget blandit sapien.</p>",
      "media": "https://fastly.picsum.photos/id/924/900/500.jpg?hmac=KA3MUITH_fZ_euiL7UGKAYbxuf140wi1AOPakuovCYk",
      "status": 0,
      "createdDate": "2025-03-04T11:08:08+01:00",
      "updatedDate": "2025-03-04T11:08:08+01:00"
    },
    {
      "id": 6,
      "title": "Proin feugiat euismod dolor eu porttitor",
      "description": "Lorem ipsum dolor sit amet, consectetur adipiscing elit. Cras condimentum interdum metus",
      "content": "<p style=\"text-align: justify;\">Lorem ipsum dolor sit amet, consectetur adipiscing elit. Fusce sed erat vel erat iaculis pellentesque quis quis libero. Nullam id quam orci. Maecenas in lacinia magna. Phasellus ac enim auctor, aliquam ligula vel, aliquet risus. Duis ut finibus magna, sit amet tincidunt nunc. Integer aliquet tempus felis, nec tincidunt erat ultricies tempus. Duis sed nunc convallis, egestas sem ullamcorper, dapibus sem. Proin id varius ipsum. Sed semper lobortis auctor. Aenean eu ligula sit amet libero tempor vestibulum eu ac neque. Maecenas sollicitudin in eros vitae mattis. Vivamus bibendum congue velit, ut scelerisque lectus.</p> <p>Nam ultricies aliquet arcu, vel malesuada sapien mattis sed. Aliquam tempus turpis vitae luctus elementum. Aliquam at ipsum neque. Nulla nulla quam, ullamcorper eu hendrerit id, volutpat at dolor. Nunc pharetra leo et purus interdum venenatis non nec felis. Sed vulputate, est quis scelerisque rhoncus, urna felis ultrices nisi, vel imperdiet dolor nibh nec erat. Quisque in pretium orci. Aenean blandit pharetra elit, ac blandit sapien volutpat et.</p>",
      "media": "https://fastly.picsum.photos/id/645/900/500.jpg?hmac=E46lF2XIhzfQnER_1mosnile9G6bgE5Qrmvd7vu2pgs",
      "status": 0,
      "createdDate": "2025-03-04T10:46:20+01:00",
      "updatedDate": "2025-03-04T10:46:20+01:00"
    },
    {
      "id": 5,
      "title": "Curabitur at orci id lacus molestie facilisis",
      "description": "Proche de Jacques Chirac, l’ancien ministre de l’Intérieur est décédé à l’âge de 80 ans.",
      "content": "<p>Nam ultricies aliquet arcu, vel malesuada sapien mattis sed. Aliquam tempus turpis vitae luctus elementum. Aliquam at ipsum neque. Nulla nulla quam, ullamcorper eu hendrerit id, volutpat at dolor. Nunc pharetra leo et purus interdum venenatis non nec felis. Sed vulputate, est quis scelerisque rhoncus, urna felis ultrices nisi, vel imperdiet dolor nibh nec erat. Quisque in pretium orci. Aenean blandit pharetra elit, ac blandit sapien volutpat et.</p><p>Cras condimentum interdum metus, nec pellentesque metus tincidunt vel. Sed in libero nec lectus mattis iaculis. Aliquam diam lorem, fermentum vel accumsan at, suscipit id odio. Proin feugiat euismod dolor eu porttitor. Donec eget varius eros. Curabitur at orci id lacus molestie facilisis. Vivamus venenatis, turpis eget egestas accumsan, ligula tortor feugiat enim, eget auctor magna sem sed purus. Donec ac magna mauris. Quisque rhoncus ligula id scelerisque pellentesque. Ut tincidunt neque ac est pellentesque, a hendrerit odio ullamcorper. Etiam sagittis orci orci, vel interdum augue volutpat vel. Duis ante nisi, fringilla ut mauris sed, accumsan mattis arcu. Integer condimentum neque nec purus malesuada pellentesque. Proin maximus ante velit, sit amet facilisis nisi egestas sed. Duis sed lacus quis nunc rutrum placerat.</p><p>Vestibulum finibus pharetra interdum. Nulla massa neque, tincidunt vel mauris non, commodo fermentum nunc. In commodo varius interdum. Pellentesque habitant morbi tristique senectus et netus et malesuada fames ac turpis egestas. Donec lobortis, magna ut laoreet tempus, mi lorem fringilla turpis, ut egestas urna est non velit. Proin ornare mollis elit. Proin nec leo non libero porttitor mollis mollis quis neque. Donec vulputate felis quis mattis dignissim. Lorem ipsum dolor sit amet, consectetur adipiscing elit. Nullam lobortis purus in libero volutpat venenatis. Nunc fringilla tincidunt iaculis. Sed in mi velit. Ut tortor nibh, ornare eu velit luctus, pulvinar facilisis justo. Duis a gravida nisl, eget blandit sapien.</p><p>Vestibulum pellentesque sodales pulvinar. Integer tortor purus, auctor nec mi at, posuere aliquet odio. In dignissim nisl id consequat consectetur. Integer porta, lorem quis placerat ultrices, massa purus molestie ante, et elementum nisi nisi quis leo. Sed volutpat mattis orci a laoreet. Mauris vehicula gravida nulla sed dictum. Curabitur eget consectetur orci. Praesent a elit mauris. Donec mi velit, commodo sit amet eleifend in, consectetur id felis.</p>",
      "media": "https://fastly.picsum.photos/id/83/900/500.jpg?hmac=GqF7vyG6k9GYtvZaqyZwgcq0SIZ7wyuutE02SdubYwU",
      "status": 1,
      "createdDate": "2025-03-04T10:41:08+01:00",
      "updatedDate": "2025-03-04T10:41:08+01:00"
    },
    {
      "id": 4,
      "title": "Curabitur at orci id lacus molestie facilisis",
      "description": "Curabitur at orci id lacus molestie facilisis. Curabitur at orci id lacus molestie",
      "content": "<p style=\"text-align: justify;\">Lorem ipsum dolor sit amet, consectetur adipiscing elit. Fusce sed erat vel erat iaculis pellentesque quis quis libero. Nullam id quam orci. Maecenas in lacinia magna. Phasellus ac enim auctor, aliquam ligula vel, aliquet risus. Duis ut finibus magna, sit amet tincidunt nunc. Integer aliquet tempus felis, nec tincidunt erat ultricies tempus. Duis sed nunc convallis, egestas sem ullamcorper, dapibus sem. Proin id varius ipsum. Sed semper lobortis auctor. Aenean eu ligula sit amet libero tempor vestibulum eu ac neque. Maecenas sollicitudin in eros vitae mattis. Vivamus bibendum congue velit, ut scelerisque lectus.</p> <p>Nam ultricies aliquet arcu, vel malesuada sapien mattis sed. Aliquam tempus turpis vitae luctus elementum. Aliquam at ipsum neque. Nulla nulla quam, ullamcorper eu hendrerit id, volutpat at dolor. Nunc pharetra leo et purus interdum venenatis non nec felis. Sed vulputate, est quis scelerisque rhoncus, urna felis ultrices nisi, vel imperdiet dolor nibh nec erat. Quisque in pretium orci. Aenean blandit pharetra elit, ac blandit sapien volutpat et.</p><p>Cras condimentum interdum metus, nec pellentesque metus tincidunt vel. Sed in libero nec lectus mattis iaculis. Aliquam diam lorem, fermentum vel accumsan at, suscipit id odio. Proin feugiat euismod dolor eu porttitor. Donec eget varius eros. Curabitur at orci id lacus molestie facilisis. Vivamus venenatis, turpis eget egestas accumsan, ligula tortor feugiat enim, eget auctor magna sem sed purus. Donec ac magna mauris. Quisque rhoncus ligula id scelerisque pellentesque. Ut tincidunt neque ac est pellentesque, a hendrerit odio ullamcorper. Etiam sagittis orci orci, vel interdum augue volutpat vel. Duis ante nisi, fringilla ut mauris sed, accumsan mattis arcu. Integer condimentum neque nec purus malesuada pellentesque. Proin maximus ante velit, sit amet facilisis nisi egestas sed. Duis sed lacus quis nunc rutrum placerat.</p>",
      "media": "https://fastly.picsum.photos/id/465/900/500.jpg?hmac=7daHHy__vgqskLHpJvS_dhzqYG5E67oSgZl51Ch-Jkw",
      "status": 1,
      "createdDate": "2025-03-04T10:35:34+01:00",
      "updatedDate": "2025-03-04T10:35:34+01:00"
    },
    {
      "id": 3,
      "title": "Item Three",
      "description": "This is a description for item three.",
      "content": "Lorem ipsum dolor sit amet, consectetur adipiscing elit.",
      "media": "https://picsum.photos/870/500",
      "status": 1,
      "createdDate": "2024-03-31T12:20:00Z",
      "updatedDate": "2024-03-31T12:50:00Z"
    },
    {
      "id": 2,
      "title": "Item Two",
      "description": "This is a description for item two.",
      "content": "<p>Nam ultricies aliquet arcu, vel malesuada sapien mattis sed. Aliquam tempus turpis vitae luctus elementum. Aliquam at ipsum neque. Nulla nulla quam, ullamcorper eu hendrerit id, volutpat at dolor. Nunc pharetra leo et purus interdum venenatis non nec felis. Sed vulputate, est quis scelerisque rhoncus, urna felis ultrices nisi, vel imperdiet dolor nibh nec erat. Quisque in pretium orci. Aenean blandit pharetra elit, ac blandit sapien volutpat et.</p><p>Cras condimentum interdum metus, nec pellentesque metus tincidunt vel. Sed in libero nec lectus mattis iaculis. Aliquam diam lorem, fermentum vel accumsan at, suscipit id odio. Proin feugiat euismod dolor eu porttitor. Donec eget varius eros. Curabitur at orci id lacus molestie facilisis. Vivamus venenatis, turpis eget egestas accumsan, ligula tortor feugiat enim, eget auctor magna sem sed purus. Donec ac magna mauris. Quisque rhoncus ligula id scelerisque pellentesque. Ut tincidunt neque ac est pellentesque, a hendrerit odio ullamcorper. Etiam sagittis orci orci, vel interdum augue volutpat vel. Duis ante nisi, fringilla ut mauris sed, accumsan mattis arcu. Integer condimentum neque nec purus malesuada pellentesque. Proin maximus ante velit, sit amet facilisis nisi egestas sed. Duis sed lacus quis nunc rutrum placerat.</p>",
      "media": "https://picsum.photos/850/500",
      "status": 1,
      "createdDate": "2024-03-31T12:10:00Z",
      "updatedDate": "2024-03-31T12:40:00Z"
    },
    {
      "id": 1,
      "title": "Item One",
      "description": "This is a description for item one.",
      "content": "<p style=\"text-align: justify;\">Lorem ipsum dolor sit amet, consectetur adipiscing elit. Fusce sed erat vel erat iaculis pellentesque quis quis libero. Nullam id quam orci. Maecenas in lacinia magna. Phasellus ac enim auctor, aliquam ligula vel, aliquet risus. Duis ut finibus magna, sit amet tincidunt nunc. Integer aliquet tempus felis, nec tincidunt erat ultricies tempus. Duis sed nunc convallis, egestas sem ullamcorper, dapibus sem. Proin id varius ipsum. Sed semper lobortis auctor. Aenean eu ligula sit amet libero tempor vestibulum eu ac neque. Maecenas sollicitudin in eros vitae mattis. Vivamus bibendum congue velit, ut scelerisque lectus.</p> <p>Nam ultricies aliquet arcu, vel malesuada sapien mattis sed. Aliquam tempus turpis vitae luctus elementum. Aliquam at ipsum neque. Nulla nulla quam, ullamcorper eu hendrerit id, volutpat at dolor. Nunc pharetra leo et purus interdum venenatis non nec felis. Sed vulputate, est quis scelerisque rhoncus, urna felis ultrices nisi, vel imperdiet dolor nibh nec erat. Quisque in pretium orci. Aenean blandit pharetra elit, ac blandit sapien volutpat et.</p>",
      "media": "https://picsum.photos/860/500",
      "status": 1,
      "createdDate": "2024-03-31T12:00:00Z",
      "updatedDate": "2024-03-31T12:30:00Z"
    }
  ]
}